<?xml version="1.0" encoding="UTF-8"?>
<svg width="14px" height="14px" viewBox="0 0 14 14" version="1.1" xmlns="http://www.w3.org/2000/svg" xmlns:xlink="http://www.w3.org/1999/xlink">
    <!-- Generator: sketchtool 64 (101010) - https://sketch.com -->
    <title>2042E23E-303B-4333-9CEA-92774A9B79E8</title>
    <desc>Created with sketchtool.</desc>
    <g id="Design" stroke="none" stroke-width="1" fill="none" fill-rule="evenodd">
        <g id="BigFoot" transform="translate(-687.000000, -5254.000000)">
            <g id="checkbox-circle-fill-copy-5" transform="translate(686.000000, 5253.000000)">
                <polygon id="Path" points="0 0 16 0 16 16 0 16"></polygon>
                <path d="M8,15 C4.1339,15 1,11.8661 1,8 C1,4.1339 4.1339,1 8,1 C11.8661,1 15,4.1339 15,8 C15,11.8661 11.8661,15 8,15 Z M7.00044197,11 L12,5.99988214 L11.0000884,5 L7.00044197,9.00023571 L4.99991161,6.99976429 L4,7.99964643 L7.00044197,11 Z" id="Shape" fill="#FFFFFF" fill-rule="nonzero"></path>
            </g>
        </g>
    </g>
</svg>