<?xml version="1.0" encoding="UTF-8"?>
<svg width="52px" height="155px" viewBox="0 0 52 155" version="1.1" xmlns="http://www.w3.org/2000/svg" xmlns:xlink="http://www.w3.org/1999/xlink">
    <!-- Generator: sketchtool 64 (101010) - https://sketch.com -->
    <title>9047BFF5-45B6-47E2-8A7C-AABD9A859046</title>
    <desc>Created with sketchtool.</desc>
    <g id="Design" stroke="none" stroke-width="1" fill="none" fill-rule="evenodd" fill-opacity="0" opacity="0.503603981">
        <g id="BigFoot" transform="translate(-49.000000, -4092.000000)" fill="#000000" fill-rule="nonzero" stroke="#000000" stroke-width="0.5">
            <path d="M10.6340018,4193.94134 C18.3049225,4193.94134 22.0706472,4189.68156 22.0706472,4181.86034 L22.0706472,4157.13966 C22.0706472,4149.31844 18.3049225,4145.05866 10.6340018,4145.05866 L-1.5,4145.05866 L-1.5,4193.94134 L10.6340018,4193.94134 Z M10.4945305,4186.9581 L6.17092069,4186.9581 L6.17092069,4152.0419 L10.4945305,4152.0419 C12.935278,4152.0419 14.3997265,4153.29888 14.3997265,4156.7905 L14.3997265,4182.2095 C14.3997265,4185.70112 12.935278,4186.9581 10.4945305,4186.9581 Z M34.6230629,4193.94134 L34.6230629,4145.05866 L26.9521422,4145.05866 L26.9521422,4193.94134 L34.6230629,4193.94134 Z M51.0109389,4194.5 C58.5423883,4194.5 62.4475843,4190.03073 62.4475843,4182.2095 L62.4475843,4166.7067 L51.7082954,4166.7067 L51.7082954,4173.68994 L55.1950775,4173.68994 L55.1950775,4182.69832 C55.1950775,4186.18994 53.6608933,4187.44693 51.2201459,4187.44693 C48.7793984,4187.44693 47.2452142,4186.18994 47.2452142,4182.69832 L47.2452142,4156.30168 C47.2452142,4152.81006 48.7793984,4151.48324 51.2201459,4151.48324 C53.6608933,4151.48324 55.1950775,4152.81006 55.1950775,4156.30168 L55.1950775,4161.53911 L62.4475843,4161.53911 L62.4475843,4156.7905 C62.4475843,4148.96927 58.5423883,4144.5 51.0109389,4144.5 C43.4794895,4144.5 39.5742935,4148.96927 39.5742935,4156.7905 L39.5742935,4182.2095 C39.5742935,4190.03073 43.4794895,4194.5 51.0109389,4194.5 Z M75.0697356,4193.94134 L75.0697356,4145.05866 L67.3988149,4145.05866 L67.3988149,4193.94134 L75.0697356,4193.94134 Z M94.1075661,4193.94134 L94.1075661,4152.0419 L102.127165,4152.0419 L102.127165,4145.05866 L78.4170465,4145.05866 L78.4170465,4152.0419 L86.4366454,4152.0419 L86.4366454,4193.94134 L94.1075661,4193.94134 Z M107.845488,4193.94134 L109.170465,4185.07263 L118.584777,4185.07263 L119.909754,4193.94134 L127.65041,4193.94134 L119.840018,4145.05866 L108.61258,4145.05866 L100.802188,4193.94134 L107.845488,4193.94134 Z M117.538742,4178.43855 L110.146764,4178.43855 L113.842753,4153.71788 L117.538742,4178.43855 Z M151.5,4193.94134 L151.5,4186.9581 L138.877849,4186.9581 L138.877849,4145.05866 L131.206928,4145.05866 L131.206928,4193.94134 L151.5,4193.94134 Z" id="digital" transform="translate(75.000000, 4169.500000) rotate(-90.000000) translate(-75.000000, -4169.500000) "></path>
        </g>
    </g>
</svg>