<?xml version="1.0" encoding="UTF-8"?>
<svg width="53px" height="220px" viewBox="0 0 53 220" version="1.1" xmlns="http://www.w3.org/2000/svg" xmlns:xlink="http://www.w3.org/1999/xlink">
    <!-- Generator: sketchtool 64 (101010) - https://sketch.com -->
    <title>E70ECDBD-320E-493F-9773-8A371EDF4A0C</title>
    <desc>Created with sketchtool.</desc>
    <g id="Design" stroke="none" stroke-width="1" fill="none" fill-rule="evenodd" fill-opacity="0" opacity="0.503603981">
        <g id="BigFoot" transform="translate(-49.000000, -2410.000000)" fill="#000000" fill-rule="nonzero" stroke="#137F7F" stroke-width="0.5">
            <path d="M-26.590789,2544.85983 L-26.590789,2509.65063 L-20.6891713,2544.85983 L-13.2041928,2544.85983 L-7.73440079,2509.15272 L-7.73440079,2544.85983 L-0.249422252,2544.85983 L-0.249422252,2495.06904 L-11.2609772,2495.06904 L-16.6587983,2530.4205 L-22.488445,2495.06904 L-33.5,2495.06904 L-33.5,2544.85983 L-26.590789,2544.85983 Z M16.9516342,2545.5 C24.7244965,2545.5 28.7548696,2540.9477 28.7548696,2532.98117 L28.7548696,2495.06904 L21.2698911,2495.06904 L21.2698911,2533.47908 C21.2698911,2537.03556 19.6865302,2538.3159 17.167547,2538.3159 C14.6485639,2538.3159 13.065203,2537.03556 13.065203,2533.47908 L13.065203,2495.06904 L5.14839881,2495.06904 L5.14839881,2532.98117 C5.14839881,2540.9477 9.17877187,2545.5 16.9516342,2545.5 Z M55.0962364,2544.85983 L55.0962364,2537.74686 L42.0694949,2537.74686 L42.0694949,2495.06904 L34.1526907,2495.06904 L34.1526907,2544.85983 L55.0962364,2544.85983 Z M68.8426874,2544.85983 L68.8426874,2502.18201 L77.1193463,2502.18201 L77.1193463,2495.06904 L52.6492242,2495.06904 L52.6492242,2502.18201 L60.9258831,2502.18201 L60.9258831,2544.85983 L68.8426874,2544.85983 Z M88.490756,2544.85983 L88.490756,2495.06904 L80.5739518,2495.06904 L80.5739518,2544.85983 L88.490756,2544.85983 Z M105.403929,2545.42887 C113.176791,2545.42887 117.207164,2540.87657 117.207164,2532.91004 L117.207164,2526.29498 L109.722186,2526.29498 L109.722186,2533.40795 C109.722186,2536.96444 108.138825,2538.24477 105.619842,2538.24477 C103.100858,2538.24477 101.517498,2536.96444 101.517498,2533.40795 L101.517498,2506.52092 C101.517498,2502.96444 103.100858,2501.61297 105.619842,2501.61297 C108.138825,2501.61297 109.722186,2502.96444 109.722186,2506.52092 L109.722186,2511.85565 L117.207164,2511.85565 L117.207164,2507.01883 C117.207164,2499.0523 113.176791,2494.5 105.403929,2494.5 C97.6310664,2494.5 93.6006933,2499.0523 93.6006933,2507.01883 L93.6006933,2532.91004 C93.6006933,2540.87657 97.6310664,2545.42887 105.403929,2545.42887 Z M127.211126,2544.85983 L128.578574,2535.82636 L138.294652,2535.82636 L139.6621,2544.85983 L147.650875,2544.85983 L139.590129,2495.06904 L128.002806,2495.06904 L119.94206,2544.85983 L127.211126,2544.85983 Z M137.215087,2529.06904 L129.586167,2529.06904 L133.400627,2503.88912 L137.215087,2529.06904 Z M158.158633,2544.85983 L158.158633,2509.65063 L164.060251,2544.85983 L171.545229,2544.85983 L177.015021,2509.15272 L177.015021,2544.85983 L184.5,2544.85983 L184.5,2495.06904 L173.488445,2495.06904 L168.090624,2530.4205 L162.260977,2495.06904 L151.249422,2495.06904 L151.249422,2544.85983 L158.158633,2544.85983 Z" id="Multicam" transform="translate(75.500000, 2520.000000) rotate(-90.000000) translate(-75.500000, -2520.000000) "></path>
        </g>
    </g>
</svg>