<?xml version="1.0" encoding="UTF-8"?>
<svg width="28px" height="28px" viewBox="0 0 28 28" version="1.1" xmlns="http://www.w3.org/2000/svg" xmlns:xlink="http://www.w3.org/1999/xlink">
    <!-- Generator: sketchtool 63.1 (101010) - https://sketch.com -->
    <title>21AB0220-37B9-4218-89F8-89E9A7FA67C0</title>
    <desc>Created with sketchtool.</desc>
    <g id="Design" stroke="none" stroke-width="1" fill="none" fill-rule="evenodd">
        <g id="BigFoot" transform="translate(-741.000000, -6541.000000)">
            <g id="FAQ" transform="translate(0.000000, 6441.000000)">
                <g id="Group-20" transform="translate(350.000000, 55.000000)">
                    <g id="arrow-right" transform="translate(405.000000, 59.000000) rotate(-90.000000) translate(-405.000000, -59.000000) translate(389.000000, 43.000000)">
                        <polygon id="Path" points="0 0 32 0 32 32 0 32"></polygon>
                        <path d="M16,2.66666667 C23.36,2.66666667 29.3333333,8.64 29.3333333,16 C29.3333333,23.36 23.36,29.3333333 16,29.3333333 C8.64,29.3333333 2.66666667,23.36 2.66666667,16 C2.66666667,8.64 8.64,2.66666667 16,2.66666667 Z M16,26.6666667 C21.8933333,26.6666667 26.6666667,21.8933333 26.6666667,16 C26.6666667,10.1066667 21.8933333,5.33333333 16,5.33333333 C10.1066667,5.33333333 5.33333333,10.1066667 5.33333333,16 C5.33333333,21.8933333 10.1066667,26.6666667 16,26.6666667 Z M17.3333333,16 L21.3333333,16 L16,21.3333333 L10.6666667,16 L14.6666667,16 L14.6666667,10.6666667 L17.3333333,10.6666667 L17.3333333,16 Z" id="Shape" fill="#000000" fill-rule="nonzero"></path>
                    </g>
                </g>
            </g>
        </g>
    </g>
</svg>