<?xml version="1.0" encoding="UTF-8"?>
<svg width="109px" height="487px" viewBox="0 0 109 487" version="1.1" xmlns="http://www.w3.org/2000/svg" xmlns:xlink="http://www.w3.org/1999/xlink">
    <!-- Generator: sketchtool 63.1 (101010) - https://sketch.com -->
    <title>5C39DAAE-1CA1-455D-97D8-10AFAE51308B</title>
    <desc>Created with sketchtool.</desc>
    <g id="Design" stroke="none" stroke-width="1" fill="none" fill-rule="evenodd" fill-opacity="0">
        <g id="BigFoot" transform="translate(-1534.000000, -4910.000000)" fill="#FFFFFF" fill-rule="nonzero" stroke="#FFFFFF">
            <g id="Services" transform="translate(0.000000, 4779.000000)">
                <path d="M1363.69635,426.804469 L1366.8457,396.916201 L1376.59369,396.916201 L1373.44434,426.804469 L1386.94156,426.804469 L1390.09091,396.916201 L1397.73933,396.916201 L1398.93908,385.259777 L1391.29066,385.259777 L1394.14007,357.912011 L1401.7885,357.912011 L1402.98825,346.255587 L1395.33983,346.255587 L1397.8893,322.195531 L1384.39208,322.195531 L1381.84261,346.255587 L1372.09462,346.255587 L1374.64409,322.195531 L1361.14688,322.195531 L1358.5974,346.255587 L1351.09895,346.255587 L1349.8992,357.912011 L1357.39765,357.912011 L1354.54824,385.259777 L1347.19975,385.259777 L1346,396.916201 L1353.34848,396.916201 L1350.19913,426.804469 L1363.69635,426.804469 Z M1377.79344,385.259777 L1368.04545,385.259777 L1370.89487,357.912011 L1380.64286,357.912011 L1377.79344,385.259777 Z M1433.282,428 C1449.47866,428 1457.87693,418.435754 1457.87693,401.698324 C1457.87693,371.810056 1425.63358,367.77514 1425.63358,346.255587 C1425.63358,338.78352 1428.63296,335.944134 1433.88188,335.944134 C1439.1308,335.944134 1442.13018,338.78352 1442.13018,346.255587 L1442.13018,350.589385 L1457.72696,350.589385 L1457.72696,347.301676 C1457.72696,330.564246 1449.47866,321 1433.43197,321 C1417.38528,321 1409.13698,330.564246 1409.13698,347.301676 C1409.13698,377.189944 1441.38033,381.22486 1441.38033,402.744413 C1441.38033,410.21648 1438.08101,412.906425 1432.8321,412.906425 C1427.58318,412.906425 1424.28386,410.21648 1424.28386,402.744413 L1424.28386,395.272346 L1408.68707,395.272346 L1408.68707,401.698324 C1408.68707,418.435754 1417.08534,428 1433.282,428 Z M1512.31571,426.804469 L1512.31571,411.860335 L1483.82158,411.860335 L1483.82158,381.22486 L1506.46691,381.22486 L1506.46691,366.280726 L1483.82158,366.280726 L1483.82158,337.139665 L1512.31571,337.139665 L1512.31571,322.195531 L1467.32498,322.195531 L1467.32498,426.804469 L1512.31571,426.804469 Z M1539.0102,426.804469 L1539.0102,384.213687 L1544.70903,384.213687 C1552.20748,384.213687 1555.5068,387.800279 1555.5068,397.513966 L1555.5068,413.952514 C1555.5068,422.47067 1556.10668,424.114525 1557.00649,426.804469 L1573.80303,426.804469 C1572.15337,422.918994 1572.0034,419.182961 1572.0034,414.101955 L1572.0034,397.962291 C1572.0034,387.053073 1569.30396,379.132682 1561.05566,375.695531 C1568.40414,372.25838 1571.85343,365.234637 1571.85343,354.47486 L1571.85343,346.255587 C1571.85343,330.115922 1564.50495,322.195531 1547.40847,322.195531 L1522.51361,322.195531 L1522.51361,426.804469 L1539.0102,426.804469 Z M1545.45887,369.269553 L1539.0102,369.269553 L1539.0102,337.139665 L1546.95857,337.139665 C1552.80736,337.139665 1555.35683,340.427374 1555.35683,347.899441 L1555.35683,358.210894 C1555.35683,366.579609 1551.60761,369.269553 1545.45887,369.269553 Z M1618.94372,426.804469 L1635.14038,322.195531 L1619.99351,322.195531 L1607.3961,407.526536 L1594.7987,322.195531 L1578.15213,322.195531 L1594.34879,426.804469 L1618.94372,426.804469 Z M1659.28541,426.804469 L1659.28541,322.195531 L1642.78881,322.195531 L1642.78881,426.804469 L1659.28541,426.804469 Z M1694.52814,428 C1710.7248,428 1719.12307,418.435754 1719.12307,401.698324 L1719.12307,387.800279 L1703.52628,387.800279 L1703.52628,402.744413 C1703.52628,410.21648 1700.22696,412.906425 1694.97805,412.906425 C1689.72913,412.906425 1686.42981,410.21648 1686.42981,402.744413 L1686.42981,346.255587 C1686.42981,338.78352 1689.72913,335.944134 1694.97805,335.944134 C1700.22696,335.944134 1703.52628,338.78352 1703.52628,346.255587 L1703.52628,357.463687 L1719.12307,357.463687 L1719.12307,347.301676 C1719.12307,330.564246 1710.7248,321 1694.52814,321 C1678.33148,321 1669.93321,330.564246 1669.93321,347.301676 L1669.93321,401.698324 C1669.93321,418.435754 1678.33148,428 1694.52814,428 Z M1774.16172,426.804469 L1774.16172,411.860335 L1745.66759,411.860335 L1745.66759,381.22486 L1768.31293,381.22486 L1768.31293,366.280726 L1745.66759,366.280726 L1745.66759,337.139665 L1774.16172,337.139665 L1774.16172,322.195531 L1729.171,322.195531 L1729.171,426.804469 L1774.16172,426.804469 Z M1806.40507,428 C1822.60173,428 1831,418.435754 1831,401.698324 C1831,371.810056 1798.75665,367.77514 1798.75665,346.255587 C1798.75665,338.78352 1801.75603,335.944134 1807.00495,335.944134 C1812.25387,335.944134 1815.25325,338.78352 1815.25325,346.255587 L1815.25325,350.589385 L1830.85003,350.589385 L1830.85003,347.301676 C1830.85003,330.564246 1822.60173,321 1806.55504,321 C1790.50835,321 1782.26005,330.564246 1782.26005,347.301676 C1782.26005,377.189944 1814.5034,381.22486 1814.5034,402.744413 C1814.5034,410.21648 1811.20408,412.906425 1805.95516,412.906425 C1800.70625,412.906425 1797.40693,410.21648 1797.40693,402.744413 L1797.40693,395.272346 L1781.81014,395.272346 L1781.81014,401.698324 C1781.81014,418.435754 1790.20841,428 1806.40507,428 Z" id="#services" transform="translate(1588.500000, 374.500000) rotate(90.000000) translate(-1588.500000, -374.500000) "></path>
            </g>
        </g>
    </g>
</svg>