<?xml version="1.0" encoding="UTF-8"?>
<svg width="48px" height="44px" viewBox="0 0 48 44" version="1.1" xmlns="http://www.w3.org/2000/svg" xmlns:xlink="http://www.w3.org/1999/xlink">
    <!-- Generator: sketchtool 63.1 (101010) - https://sketch.com -->
    <title>D708AC54-3272-4A04-AC8E-81A8EF43716E</title>
    <desc>Created with sketchtool.</desc>
    <defs>
        <path d="M11.996,14 L16.616,6 L23.996,6 L19.376,14 L11.996,14 Z M23.996,14 L28.616,6 L35.996,6 L31.376,14 L23.996,14 Z M35.996,14 L40.616,6 L42.016,6 C43.112,6 44,6.89 44,7.986 L44,40.014 C43.9923844,41.1068889 43.1088807,41.9912832 42.016,42 L5.984,42 C4.88794362,41.9988962 4,41.1100569 4,40.014 L4,7.986 C4.00761565,6.89311109 4.89111932,6.00871679 5.984,6 L11.996,6 L8,12.92 L8,38 L40,38 L40,14 L35.996,14 Z" id="path-1"></path>
        <filter x="-17.5%" y="-13.9%" width="135.0%" height="138.9%" filterUnits="objectBoundingBox" id="filter-2">
            <feOffset dx="0" dy="2" in="SourceAlpha" result="shadowOffsetOuter1"></feOffset>
            <feGaussianBlur stdDeviation="2" in="shadowOffsetOuter1" result="shadowBlurOuter1"></feGaussianBlur>
            <feColorMatrix values="0 0 0 0 0   0 0 0 0 0   0 0 0 0 0  0 0 0 0.2 0" type="matrix" in="shadowBlurOuter1"></feColorMatrix>
        </filter>
    </defs>
    <g id="Design" stroke="none" stroke-width="1" fill="none" fill-rule="evenodd">
        <g id="BigFoot" transform="translate(-850.000000, -5239.000000)">
            <g id="Services" transform="translate(0.000000, 4779.000000)">
                <g id="clapperboard-line" transform="translate(850.000000, 456.000000)">
                    <polygon id="Path" points="0 0 48 0 48 48 0 48"></polygon>
                    <g id="Shape" fill-rule="nonzero">
                        <use fill="black" fill-opacity="1" filter="url(#filter-2)" xlink:href="#path-1"></use>
                        <use fill="#FFFFFF" xlink:href="#path-1"></use>
                    </g>
                </g>
            </g>
        </g>
    </g>
</svg>