<?xml version="1.0" encoding="UTF-8"?>
<svg width="762px" height="144px" viewBox="0 0 762 144" version="1.1" xmlns="http://www.w3.org/2000/svg" xmlns:xlink="http://www.w3.org/1999/xlink">
    <!-- Generator: sketchtool 64 (101010) - https://sketch.com -->
    <title>B2DAC5C6-45EA-4B93-8FF6-56FE4BE746A0</title>
    <desc>Created with sketchtool.</desc>
    <g id="Design" stroke="none" stroke-width="1" fill="none" fill-rule="evenodd" fill-opacity="0.599404502" opacity="0.0500139509">
        <g id="BigFoot" transform="translate(-648.000000, -6239.000000)" fill="#172632" fill-rule="nonzero">
            <g id="Customers" transform="translate(0.000000, 6239.000000)">
                <path d="M671.6,141.6 L675.8,101.6 L688.8,101.6 L684.6,141.6 L702.6,141.6 L706.8,101.6 L717,101.6 L718.6,86 L708.4,86 L712.2,49.4 L722.4,49.4 L724,33.8 L713.8,33.8 L717.2,1.6 L699.2,1.6 L695.8,33.8 L682.8,33.8 L686.2,1.6 L668.2,1.6 L664.8,33.8 L654.8,33.8 L653.2,49.4 L663.2,49.4 L659.4,86 L649.6,86 L648,101.6 L657.8,101.6 L653.6,141.6 L671.6,141.6 Z M690.4,86 L677.4,86 L681.2,49.4 L694.2,49.4 L690.4,86 Z M757,141.6 L757,1.6 L735,1.6 L735,141.6 L757,141.6 Z M792.6,141.6 L792.6,40.2 L820,141.6 L842.6,141.6 L842.6,1.6 L823,1.6 L823,85.4 L800.4,1.6 L772.8,1.6 L772.8,141.6 L792.6,141.6 Z M887.8,143.2 C909.4,143.2 920.6,130.4 920.6,108 C920.6,68 877.6,62.6 877.6,33.8 C877.6,23.8 881.6,20 888.6,20 C895.6,20 899.6,23.8 899.6,33.8 L899.6,39.6 L920.4,39.6 L920.4,35.2 C920.4,12.8 909.4,1.42108547e-14 888,1.42108547e-14 C866.6,1.42108547e-14 855.6,12.8 855.6,35.2 C855.6,75.2 898.6,80.6 898.6,109.4 C898.6,119.4 894.2,123 887.2,123 C880.2,123 875.8,119.4 875.8,109.4 L875.8,99.4 L855,99.4 L855,108 C855,130.4 866.2,143.2 887.8,143.2 Z M971.8,141.6 L971.8,21.6 L994.8,21.6 L994.8,1.6 L926.8,1.6 L926.8,21.6 L949.8,21.6 L949.8,141.6 L971.8,141.6 Z M1011.2,141.6 L1015,116.2 L1042,116.2 L1045.8,141.6 L1068,141.6 L1045.6,1.6 L1013.4,1.6 L991,141.6 L1011.2,141.6 Z M1039,97.2 L1017.8,97.2 L1028.4,26.4 L1039,97.2 Z M1109,143.2 C1130.6,143.2 1141.8,130.4 1141.8,108 L1141.8,63.6 L1111,63.6 L1111,83.6 L1121,83.6 L1121,109.4 C1121,119.4 1116.6,123 1109.6,123 C1102.6,123 1098.2,119.4 1098.2,109.4 L1098.2,33.8 C1098.2,23.8 1102.6,20 1109.6,20 C1116.6,20 1121,23.8 1121,33.8 L1121,48.8 L1141.8,48.8 L1141.8,35.2 C1141.8,12.8 1130.6,1.42108547e-14 1109,1.42108547e-14 C1087.4,1.42108547e-14 1076.2,12.8 1076.2,35.2 L1076.2,108 C1076.2,130.4 1087.4,143.2 1109,143.2 Z M1178,141.6 L1178,84.6 L1185.6,84.6 C1195.6,84.6 1200,89.4 1200,102.4 L1200,124.4 C1200,135.8 1200.8,138 1202,141.6 L1224.4,141.6 C1222.26875,136.5625 1222.01445,131.712695 1222.00064,125.232288 L1222,103 C1222,88.4 1218.4,77.8 1207.4,73.2 C1217.2,68.6 1221.8,59.2 1221.8,44.8 L1221.8,33.8 C1221.8,12.2 1212,1.6 1189.2,1.6 L1156,1.6 L1156,141.6 L1178,141.6 Z M1186.6,64.6 L1178,64.6 L1178,21.6 L1188.6,21.6 C1196.4,21.6 1199.8,26 1199.8,36 L1199.8,49.8 C1199.8,61 1194.8,64.6 1186.6,64.6 Z M1250.8,141.6 L1254.6,116.2 L1281.6,116.2 L1285.4,141.6 L1307.6,141.6 L1285.2,1.6 L1253,1.6 L1230.6,141.6 L1250.8,141.6 Z M1278.6,97.2 L1257.4,97.2 L1268,26.4 L1278.6,97.2 Z M1336.8,141.6 L1336.8,42.6 L1353.2,141.6 L1374,141.6 L1389.2,41.2 L1389.2,141.6 L1410,141.6 L1410,1.6 L1379.4,1.6 L1364.4,101 L1348.2,1.6 L1317.6,1.6 L1317.6,141.6 L1336.8,141.6 Z" id="#instagram"></path>
            </g>
        </g>
    </g>
</svg>