<?xml version="1.0" encoding="UTF-8"?>
<svg width="109px" height="644px" viewBox="0 0 109 644" version="1.1" xmlns="http://www.w3.org/2000/svg" xmlns:xlink="http://www.w3.org/1999/xlink">
    <!-- Generator: sketchtool 64 (101010) - https://sketch.com -->
    <title>0CC7A390-8A19-4C49-BCED-5C942B09C212</title>
    <desc>Created with sketchtool.</desc>
    <g id="Design" stroke="none" stroke-width="1" fill="none" fill-rule="evenodd">
        <g id="BigFoot" transform="translate(-50.000000, -134.000000)" fill-rule="nonzero" stroke="#FFFFFF" stroke-width="0.2">
            <g id="#photo" transform="translate(50.000000, 134.000000)">
                <path d="M-249.3,374.2 L-246.15,344.2 L-236.4,344.2 L-239.55,374.2 L-226.05,374.2 L-222.9,344.2 L-215.25,344.2 L-214.05,332.5 L-221.7,332.5 L-218.85,305.05 L-211.2,305.05 L-210,293.35 L-217.65,293.35 L-215.1,269.2 L-228.6,269.2 L-231.15,293.35 L-240.9,293.35 L-238.35,269.2 L-251.85,269.2 L-254.4,293.35 L-261.9,293.35 L-263.1,305.05 L-255.6,305.05 L-258.45,332.5 L-265.8,332.5 L-267,344.2 L-259.65,344.2 L-262.8,374.2 L-249.3,374.2 Z M-235.2,332.5 L-244.95,332.5 L-242.1,305.05 L-232.35,305.05 L-235.2,332.5 Z M-185.25,374.2 L-185.25,334.75 L-177.45,334.75 C-160.95,334.75 -152.85,325.6 -152.85,308.8 L-152.85,295.15 C-152.85,278.35 -160.95,269.2 -177.45,269.2 L-201.75,269.2 L-201.75,374.2 L-185.25,374.2 Z M-177.45,319.75 L-185.25,319.75 L-185.25,284.2 L-177.45,284.2 C-172.2,284.2 -169.35,286.6 -169.35,294.1 L-169.35,309.85 C-169.35,317.35 -172.2,319.75 -177.45,319.75 Z M-128.7,374.2 L-128.7,329.2 L-109.95,329.2 L-109.95,374.2 L-93.15,374.2 L-93.15,269.2 L-109.95,269.2 L-109.95,314.2 L-128.7,314.2 L-128.7,269.2 L-145.2,269.2 L-145.2,374.2 L-128.7,374.2 Z M-57.45,375.4 C-41.25,375.4 -32.4,365.8 -32.4,349 L-32.4,294.4 C-32.4,277.6 -41.25,268 -57.45,268 C-73.65,268 -82.5,277.6 -82.5,294.4 L-82.5,349 C-82.5,365.8 -73.65,375.4 -57.45,375.4 Z M-57.45,360.4 C-62.7,360.4 -66,357.55 -66,350.05 L-66,293.35 C-66,285.85 -62.7,283 -57.45,283 C-52.2,283 -48.9,285.85 -48.9,293.35 L-48.9,350.05 C-48.9,357.55 -52.2,360.4 -57.45,360.4 Z M7.2,374.2 L7.2,284.2 L24.45,284.2 L24.45,269.2 L-26.55,269.2 L-26.55,284.2 L-9.3,284.2 L-9.3,374.2 L7.2,374.2 Z M55.35,375.4 C71.55,375.4 80.4,365.8 80.4,349 L80.4,294.4 C80.4,277.6 71.55,268 55.35,268 C39.15,268 30.3,277.6 30.3,294.4 L30.3,349 C30.3,365.8 39.15,375.4 55.35,375.4 Z M55.35,360.4 C50.1,360.4 46.8,357.55 46.8,350.05 L46.8,293.35 C46.8,285.85 50.1,283 55.35,283 C60.6,283 63.9,285.85 63.9,293.35 L63.9,350.05 C63.9,357.55 60.6,360.4 55.35,360.4 Z M117,374.2 C133.5,374.2 142.05,365.5 142.05,349.3 L142.05,340.75 C142.05,329.65 138.6,321.7 129.75,318.25 C137.1,314.8 140.4,307.9 140.4,297.1 L140.4,293.35 C140.4,277.15 133.05,269.2 115.95,269.2 L91.05,269.2 L91.05,374.2 L117,374.2 Z M114,311.95 L107.55,311.95 L107.55,284.2 L115.5,284.2 C121.35,284.2 123.9,287.5 123.9,295 L123.9,300.85 C123.9,309.25 120.15,311.95 114,311.95 Z M117,359.2 L107.55,359.2 L107.55,326.95 L114.9,326.95 C122.4,326.95 125.55,329.95 125.55,339.7 L125.55,348.85 C125.55,356.65 122.55,359.2 117,359.2 Z M175.65,375.4 C191.85,375.4 200.7,365.8 200.7,349 L200.7,294.4 C200.7,277.6 191.85,268 175.65,268 C159.45,268 150.6,277.6 150.6,294.4 L150.6,349 C150.6,365.8 159.45,375.4 175.65,375.4 Z M175.65,360.4 C170.4,360.4 167.1,357.55 167.1,350.05 L167.1,293.35 C167.1,285.85 170.4,283 175.65,283 C180.9,283 184.2,285.85 184.2,293.35 L184.2,350.05 C184.2,357.55 180.9,360.4 175.65,360.4 Z M235.05,375.4 C251.25,375.4 260.1,365.8 260.1,349 L260.1,294.4 C260.1,277.6 251.25,268 235.05,268 C218.85,268 210,277.6 210,294.4 L210,349 C210,365.8 218.85,375.4 235.05,375.4 Z M235.05,360.4 C229.8,360.4 226.5,357.55 226.5,350.05 L226.5,293.35 C226.5,285.85 229.8,283 235.05,283 C240.3,283 243.6,285.85 243.6,293.35 L243.6,350.05 C243.6,357.55 240.3,360.4 235.05,360.4 Z M299.7,374.2 L299.7,284.2 L316.95,284.2 L316.95,269.2 L265.95,269.2 L265.95,284.2 L283.2,284.2 L283.2,374.2 L299.7,374.2 Z M340.65,374.2 L340.65,329.2 L359.4,329.2 L359.4,374.2 L376.2,374.2 L376.2,269.2 L359.4,269.2 L359.4,314.2 L340.65,314.2 L340.65,269.2 L324.15,269.2 L324.15,374.2 L340.65,374.2 Z" id="#photobooth" transform="translate(54.600000, 321.700000) rotate(90.000000) translate(-54.600000, -321.700000) "></path>
            </g>
        </g>
    </g>
</svg>