<?xml version="1.0" encoding="UTF-8"?>
<svg width="11px" height="11px" viewBox="0 0 11 11" version="1.1" xmlns="http://www.w3.org/2000/svg" xmlns:xlink="http://www.w3.org/1999/xlink">
    <!-- Generator: sketchtool 64 (101010) - https://sketch.com -->
    <title>58ED310F-37F6-4F03-92E6-2798554DA7C5</title>
    <desc>Created with sketchtool.</desc>
    <g id="Design" stroke="none" stroke-width="1" fill="none" fill-rule="evenodd">
        <g id="M_BigFoot" transform="translate(-80.000000, -4581.000000)">
            <g id="Group-27" transform="translate(-225.000000, 4352.000000)">
                <g id="Group-26" transform="translate(280.000000, 0.000000)">
                    <g id="checkbox-circle-fill-copy-2" transform="translate(25.200000, 228.900000)">
                        <polygon id="Path" points="0 0 11.2 0 11.2 11.2 0 11.2"></polygon>
                        <path d="M5.6,10.5 C2.89373,10.5 0.7,8.30627 0.7,5.6 C0.7,2.89373 2.89373,0.7 5.6,0.7 C8.30627,0.7 10.5,2.89373 10.5,5.6 C10.5,8.30627 8.30627,10.5 5.6,10.5 Z M4.90030938,7.7 L8.4,4.1999175 L7.70006188,3.5 L4.90030938,6.300165 L3.49993812,4.899835 L2.8,5.5997525 L4.90030938,7.7 Z" id="Shape" fill="#FFFFFF" fill-rule="nonzero"></path>
                    </g>
                </g>
            </g>
        </g>
    </g>
</svg>