<?xml version="1.0" encoding="UTF-8"?>
<svg width="14px" height="14px" viewBox="0 0 14 14" version="1.1" xmlns="http://www.w3.org/2000/svg" xmlns:xlink="http://www.w3.org/1999/xlink">
    <!-- Generator: sketchtool 64 (101010) - https://sketch.com -->
    <title>B5DEDD84-B29D-4141-B80E-F54680697253</title>
    <desc>Created with sketchtool.</desc>
    <g id="Design" stroke="none" stroke-width="1" fill="none" fill-rule="evenodd">
        <g id="Services" transform="translate(-687.000000, -3030.000000)">
            <g id="Group-3" transform="translate(250.000000, 2448.000000)">
                <g id="checkbox-circle-fill-copy" transform="translate(436.000000, 581.000000)">
                    <polygon id="Path" points="0 0 16 0 16 16 0 16"></polygon>
                    <path d="M8,15 C4.1339,15 1,11.8661 1,8 C1,4.1339 4.1339,1 8,1 C11.8661,1 15,4.1339 15,8 C15,11.8661 11.8661,15 8,15 Z M7.00044197,11 L12,5.99988214 L11.0000884,5 L7.00044197,9.00023571 L4.99991161,6.99976429 L4,7.99964643 L7.00044197,11 Z" id="Shape" fill="#FFFFFF" fill-rule="nonzero"></path>
                </g>
            </g>
        </g>
    </g>
</svg>