<?xml version="1.0" encoding="UTF-8"?>
<svg width="44px" height="36px" viewBox="0 0 44 36" version="1.1" xmlns="http://www.w3.org/2000/svg" xmlns:xlink="http://www.w3.org/1999/xlink">
    <!-- Generator: sketchtool 64 (101010) - https://sketch.com -->
    <title>338E35A5-D142-4628-8BD9-E2ED18DD95CB</title>
    <desc>Created with sketchtool.</desc>
    <g id="Design" stroke="none" stroke-width="1" fill="none" fill-rule="evenodd">
        <g id="BigFoot" transform="translate(-552.000000, -7037.000000)">
            <g id="Group-22" transform="translate(250.000000, 7031.000000)">
                <g id="macbook-fill" transform="translate(300.000000, 0.000000)">
                    <polygon id="Path" points="0 0 48 0 48 48 0 48"></polygon>
                    <path d="M4,8.014 C4,6.9 4.91,6 5.984,6 L42.016,6 C43.112,6 44,6.9 44,8.014 L44,34 L4,34 L4,8.014 Z M2,38 L46,38 L46,42 L2,42 L2,38 Z" id="Shape" fill="#F9535B" fill-rule="nonzero"></path>
                </g>
            </g>
        </g>
    </g>
</svg>