<?xml version="1.0" encoding="UTF-8"?>
<svg width="58px" height="211px" viewBox="0 0 58 211" version="1.1" xmlns="http://www.w3.org/2000/svg" xmlns:xlink="http://www.w3.org/1999/xlink">
    <!-- Generator: sketchtool 64 (101010) - https://sketch.com -->
    <title>D1590D16-50B6-4850-85C9-7C4AD5DC35E4</title>
    <desc>Created with sketchtool.</desc>
    <g id="Design" stroke="none" stroke-width="1" fill="none" fill-rule="evenodd" fill-opacity="0" opacity="0.117047991">
        <g id="BigFoot" transform="translate(-1372.000000, -5838.000000)" fill="#132634" fill-rule="nonzero" stroke="#000000">
            <g id="Digital" transform="translate(1372.000000, 5838.000000)">
                <path d="M-66.5743629,133.363128 L-64.896919,117.441341 L-59.7048307,117.441341 L-61.3822746,133.363128 L-54.1932294,133.363128 L-52.5157855,117.441341 L-48.4419932,117.441341 L-47.8029669,111.231844 L-51.8767592,111.231844 L-50.3590719,96.6634078 L-46.2852796,96.6634078 L-45.6462533,90.4539106 L-49.7200456,90.4539106 L-48.3621149,77.6368715 L-55.5511601,77.6368715 L-56.9090909,90.4539106 L-62.1011792,90.4539106 L-60.7432484,77.6368715 L-67.9322936,77.6368715 L-69.2902244,90.4539106 L-73.2841385,90.4539106 L-73.9231647,96.6634078 L-69.9292507,96.6634078 L-71.446938,111.231844 L-75.3609738,111.231844 L-76,117.441341 L-72.0859642,117.441341 L-73.7634081,133.363128 L-66.5743629,133.363128 Z M-59.0658045,111.231844 L-64.2578927,111.231844 L-62.7402054,96.6634078 L-57.5481172,96.6634078 L-59.0658045,111.231844 Z M-27.354127,133.363128 C-18.5675162,133.363128 -14.254089,128.506983 -14.254089,119.590782 L-14.254089,91.4092179 C-14.254089,82.4930168 -18.5675162,77.6368715 -27.354127,77.6368715 L-41.2529479,77.6368715 L-41.2529479,133.363128 L-27.354127,133.363128 Z M-27.5138836,125.402235 L-32.466337,125.402235 L-32.466337,85.5977654 L-27.5138836,85.5977654 C-24.7181438,85.5977654 -23.0406999,87.0307263 -23.0406999,91.0111732 L-23.0406999,119.988827 C-23.0406999,123.969274 -24.7181438,125.402235 -27.5138836,125.402235 Z M0.124001521,133.363128 L0.124001521,77.6368715 L-8.66260936,77.6368715 L-8.66260936,133.363128 L0.124001521,133.363128 Z M18.8953975,134 C27.5222518,134 31.9954355,128.905028 31.9954355,119.988827 L31.9954355,102.315642 L19.6941803,102.315642 L19.6941803,110.276536 L23.6880943,110.276536 L23.6880943,120.546089 C23.6880943,124.526536 21.9307722,125.959497 19.1350323,125.959497 C16.3392925,125.959497 14.5819703,124.526536 14.5819703,120.546089 L14.5819703,90.4539106 C14.5819703,86.4734637 16.3392925,84.9608939 19.1350323,84.9608939 C21.9307722,84.9608939 23.6880943,86.4734637 23.6880943,90.4539106 L23.6880943,96.424581 L31.9954355,96.424581 L31.9954355,91.0111732 C31.9954355,82.0949721 27.5222518,77 18.8953975,77 C10.2685432,77 5.79535945,82.0949721 5.79535945,91.0111732 L5.79535945,119.988827 C5.79535945,128.905028 10.2685432,134 18.8953975,134 Z M46.4534043,133.363128 L46.4534043,77.6368715 L37.6667935,77.6368715 L37.6667935,133.363128 L46.4534043,133.363128 Z M68.260175,133.363128 L68.260175,85.5977654 L77.4461773,85.5977654 L77.4461773,77.6368715 L50.2875618,77.6368715 L50.2875618,85.5977654 L59.4735641,85.5977654 L59.4735641,133.363128 L68.260175,133.363128 Z M83.9961963,133.363128 L85.5138836,123.252793 L96.2974515,123.252793 L97.8151388,133.363128 L106.681628,133.363128 L97.7352606,77.6368715 L84.8748574,77.6368715 L75.9284899,133.363128 L83.9961963,133.363128 Z M95.0992773,115.689944 L86.6321795,115.689944 L90.8657284,87.5083799 L95.0992773,115.689944 Z M134,133.363128 L134,125.402235 L119.542031,125.402235 L119.542031,77.6368715 L110.75542,77.6368715 L110.75542,133.363128 L134,133.363128 Z" id="#digital" transform="translate(29.000000, 105.500000) rotate(-90.000000) translate(-29.000000, -105.500000) "></path>
            </g>
        </g>
    </g>
</svg>