<?xml version="1.0" encoding="UTF-8"?>
<svg width="28px" height="40px" viewBox="0 0 28 40" version="1.1" xmlns="http://www.w3.org/2000/svg" xmlns:xlink="http://www.w3.org/1999/xlink">
    <!-- Generator: sketchtool 64 (101010) - https://sketch.com -->
    <title>6EAEDA60-16C4-4C48-824A-39BDD348F585</title>
    <desc>Created with sketchtool.</desc>
    <g id="Design" stroke="none" stroke-width="1" fill="none" fill-rule="evenodd">
        <g id="Services" transform="translate(-1153.000000, -178.000000)">
            <g id="smartphone-fill" transform="translate(1143.000000, 174.000000)">
                <polygon id="Path" points="0 0 48 0 48 48 0 48"></polygon>
                <path d="M12,4 L36,4 C37.1045695,4 38,4.8954305 38,6 L38,42 C38,43.1045695 37.1045695,44 36,44 L12,44 C10.8954305,44 10,43.1045695 10,42 L10,6 C10,4.8954305 10.8954305,4 12,4 Z M24,34 C22.8954305,34 22,34.8954305 22,36 C22,37.1045695 22.8954305,38 24,38 C25.1045695,38 26,37.1045695 26,36 C26,34.8954305 25.1045695,34 24,34 Z" id="Shape" fill="#F9535B" fill-rule="nonzero"></path>
            </g>
        </g>
    </g>
</svg>