<?xml version="1.0" encoding="UTF-8"?>
<svg width="40px" height="40px" viewBox="0 0 40 40" version="1.1" xmlns="http://www.w3.org/2000/svg" xmlns:xlink="http://www.w3.org/1999/xlink">
    <!-- Generator: sketchtool 63.1 (101010) - https://sketch.com -->
    <title>Instagram white</title>
    <desc>Created with sketchtool.</desc>
    <g id="Design" stroke="none" stroke-width="1" fill="none" fill-rule="evenodd">
        <g id="BigFoot" transform="translate(-709.000000, -3968.000000)">
            <g id="Customers" transform="translate(0.000000, 3434.000000)">
                <g id="Instagram" transform="translate(705.000000, 530.000000)">
                    <polygon id="Path" points="0 0 48 0 48 48 0 48"></polygon>
                    <path d="M24,4 C29.434,4 30.112,4.02 32.244,4.12 C34.374,4.22 35.824,4.554 37.1,5.05 C38.42,5.558 39.532,6.246 40.644,7.356 C41.6609873,8.35579192 42.4479072,9.56517792 42.95,10.9 C43.444,12.174 43.78,13.626 43.88,15.756 C43.974,17.888 44,18.566 44,24 C44,29.434 43.98,30.112 43.88,32.244 C43.78,34.374 43.444,35.824 42.95,37.1 C42.4493532,38.435553 41.6622414,39.645234 40.644,40.644 C39.6439229,41.6606385 38.4346187,42.4475052 37.1,42.95 C35.826,43.444 34.374,43.78 32.244,43.88 C30.112,43.974 29.434,44 24,44 C18.566,44 17.888,43.98 15.756,43.88 C13.626,43.78 12.176,43.444 10.9,42.95 C9.56465235,42.4489467 8.35505444,41.661889 7.356,40.644 C6.33881287,39.6443714 5.55186247,38.4349386 5.05,37.1 C4.554,35.826 4.22,34.374 4.12,32.244 C4.026,30.112 4,29.434 4,24 C4,18.566 4.02,17.888 4.12,15.756 C4.22,13.624 4.554,12.176 5.05,10.9 C5.55047221,9.56435881 6.33760728,8.35464212 7.356,7.356 C8.35534195,6.33846246 9.56485717,5.55145848 10.9,5.05 C12.176,4.554 13.624,4.22 15.756,4.12 C17.888,4.026 18.566,4 24,4 Z M24,14 C18.4771525,14 14,18.4771525 14,24 C14,29.5228475 18.4771525,34 24,34 C29.5228475,34 34,29.5228475 34,24 C34,18.4771525 29.5228475,14 24,14 L24,14 Z M37,13.5 C37,12.1192881 35.8807119,11 34.5,11 C33.1192881,11 32,12.1192881 32,13.5 C32,14.8807119 33.1192881,16 34.5,16 C35.8807119,16 37,14.8807119 37,13.5 Z M24,18 C27.3137085,18 30,20.6862915 30,24 C30,27.3137085 27.3137085,30 24,30 C20.6862915,30 18,27.3137085 18,24 C18,20.6862915 20.6862915,18 24,18 Z" id="Shape" fill="#ffffff" fill-rule="nonzero"></path>
                </g>
            </g>
        </g>
    </g>
</svg>